<?xml version="1.0" standalone="no"?>
<!DOCTYPE svg PUBLIC "-//W3C//DTD SVG 1.1//EN" "http://www.w3.org/Graphics/SVG/1.1/DTD/svg11.dtd" >
<svg xmlns="http://www.w3.org/2000/svg">
<metadata>Generated by IcoMoon</metadata>
<defs>
<font id="icomoon" horiz-adv-x="1024">
<font-face units-per-em="1024" ascent="960" descent="-64" />
<missing-glyph horiz-adv-x="1024" />
<glyph unicode="&#x20;" horiz-adv-x="512" d="" />
<glyph unicode="&#xe900;" glyph-name="cash" d="M870.067 617.815c-0.011 0-0.024 0-0.034 0h-855.372c-8.088 0.009-14.653-6.539-14.661-14.627 0-0.011 0-0.024 0-0.034v-410.579c-0.009-8.088 6.539-14.653 14.627-14.661 0.011 0 0.024 0 0.034 0h581.653c8.096 0 14.661 6.565 14.661 14.661s-6.565 14.661-14.661 14.661h-566.992v381.256h826.050v-36.661c-0.009-8.088 6.539-14.653 14.627-14.661 0.011 0 0.024 0 0.034 0 8.088-0.009 14.653 6.539 14.661 14.627 0 0.011 0 0.024 0 0.034v51.322c0.009 8.088-6.539 14.65-14.627 14.661zM770.605 685.885l-684.298 153.967c-3.798 0.849-7.777 0.16-11.069-1.916-3.287-2.094-5.611-5.402-6.467-9.204l-34.215-153.967c-1.758-7.908 3.229-15.743 11.137-17.501s15.743 3.229 17.501 11.137l31.016 139.614 669.962-150.734c1.061-0.246 2.145-0.368 3.233-0.359 8.096 0.015 14.648 6.591 14.635 14.687-0.013 6.845-4.76 12.769-11.436 14.276zM687.514 770.721l-410.579 171.074c-7.136 2.975-15.358-0.081-18.818-6.997l-34.215-68.43c-3.864-7.147-1.204-16.075 5.945-19.939 7.147-3.864 16.075-1.204 19.939 5.945 0.152 0.28 0.295 0.567 0.428 0.858v-0.034l28.073 56.181 397.902-165.788c7.493-3.126 16.102 0.411 19.229 7.904 3.126 7.489-0.411 16.098-7.904 19.227zM697.881 549.385h-135.782c-8.096 0-14.661-6.565-14.661-14.661s6.565-14.661 14.661-14.661h135.782c8.096 0 14.661 6.565 14.661 14.661s-6.565 14.661-14.661 14.661zM425.24 548.41c-83.144 0-150.545-67.401-150.545-150.545 0.086-83.108 67.438-150.46 150.545-150.545 83.144 0 150.545 67.401 150.545 150.545s-67.401 150.545-150.545 150.545zM425.24 274.691c-68.028 0-123.174 55.146-123.174 123.174 0.075 67.996 55.178 123.099 123.174 123.174 68.028 0 123.174-55.146 123.174-123.174s-55.146-123.174-123.174-123.174zM835.818 500.509c-90.669 0-188.182-21.419-188.182-68.43v-410.579c0-47.011 97.512-68.43 188.182-68.43s188.182 21.419 188.182 68.43v410.579c0 47.011-97.512 68.43-188.182 68.43zM989.785 21.757c-2.583-9.495-53.888-34.471-153.967-34.471s-151.384 24.977-153.967 34.215v26.893c36.405-18.339 96.537-26.893 153.967-26.893s117.579 8.639 153.967 26.91v-26.653zM989.785 90.187c-2.583-9.495-53.888-34.471-153.967-34.471s-151.384 24.977-153.967 34.215v26.893c36.405-18.339 96.537-26.893 153.967-26.893s117.579 8.639 153.967 26.91v-26.653zM989.785 158.617c-2.583-9.495-53.888-34.471-153.967-34.471s-151.384 24.977-153.967 34.215v26.893c36.405-18.339 96.537-26.893 153.967-26.893s117.579 8.639 153.967 26.91v-26.653zM989.785 227.047c-2.583-9.495-53.888-34.471-153.967-34.471s-151.384 24.977-153.967 34.215v26.893c36.405-18.339 96.537-26.893 153.967-26.893s117.579 8.639 153.967 26.91v-26.653zM989.785 295.476c-2.583-9.495-53.888-34.471-153.967-34.471s-151.384 24.977-153.967 34.215v26.893c36.405-18.254 96.537-26.893 153.967-26.893s117.579 8.639 153.967 26.91v-26.653zM989.785 363.906c-2.583-9.495-53.888-34.471-153.967-34.471s-151.384 24.977-153.967 34.215v26.893c36.405-18.254 96.537-26.893 153.967-26.893s117.579 8.639 153.967 26.91v-26.653zM835.818 397.865c-99.925 0-151.213 24.908-153.967 33.907v0.103c2.754 9.529 54.042 34.42 153.967 34.42 99.223 0 150.545-24.532 153.967-34.215-3.421-9.683-54.744-34.215-153.967-34.215zM288.38 275.683h-129.315l-61.313 67.061v111.198l67.711 66.12h122.917c8.096 0 14.661 6.565 14.661 14.661s-6.565 14.661-14.661 14.661h-128.87c-3.832 0.009-7.517-1.484-10.264-4.157l-76.419-74.537c-2.855-3.336-4.42-7.585-4.414-11.975v-121.668c0-3.659 1.366-7.185 3.832-9.888l69.508-76.025c2.778-3.041 6.708-4.775 10.829-4.773h135.799c8.096 0 14.661 6.565 14.661 14.661s-6.563 14.661-14.661 14.661zM433.793 414.972h-17.107c-5.32 0-8.554 2.977-8.554 4.277s3.233 4.277 8.554 4.277h42.769c9.448 0 17.107 7.66 17.107 17.107s-7.66 17.107-17.107 17.107h-17.107c0 9.448-7.66 17.107-17.107 17.107s-17.107-7.66-17.107-17.107v-0.77c-18.974-2.679-33.349-18.493-34.215-37.636 1.225-22.43 20.33-39.664 42.769-38.577h17.107c5.32 0 8.554-2.977 8.554-4.277s-3.233-4.277-8.554-4.277h-42.769c-9.448 0-17.107-7.66-17.107-17.107s7.66-17.107 17.107-17.107h17.107c0-9.448 7.66-17.107 17.107-17.107s17.107 7.66 17.107 17.107v0.77c18.974 2.679 33.349 18.493 34.215 37.636-1.225 22.43-20.33 39.664-42.769 38.577z" />
<glyph unicode="&#xe901;" glyph-name="checked" d="M970.607 802.67l-602.559-602.554-314.655 314.65-53.393-53.393 368.048-368.043 655.952 655.947z" />
<glyph unicode="&#xe902;" glyph-name="coin" d="M908.039 656.957l56.625 29.963c-10.649 20.125-22.618 39.522-35.827 58.067l-52.202-37.205c11.588-16.223 22.079-33.201 31.405-50.824zM838.789 754.023l46.754 43.806c-15.578 16.61-32.224 32.186-49.831 46.626l-40.634-49.574c15.446-12.652 30.047-26.299 43.71-40.858zM992.575 624.495h-0.064l-60.117-22.079c85.632-232.659-33.56-490.686-266.219-576.315s-490.686 33.56-576.315 266.221 33.56 490.684 266.219 576.315c129.25 47.57 273.182 33.175 390.451-39.048l33.68 54.477c-240.83 148.109-556.131 72.942-704.239-167.891s-72.942-556.131 167.891-704.239 556.131-72.942 704.239 167.891c82.155 133.584 98.544 297.457 44.475 444.668zM639.305 447.571c70.793 0 128.182 57.39 128.182 128.182s-57.39 128.182-128.182 128.182h-224.319v-192.273h-128.182v-64.091h128.182v-64.091h-128.182v-64.091h128.182v-128.182h64.091v128.182h128.182v64.091h-128.182v64.091h160.228zM479.077 639.845h160.228c35.396 0 64.091-28.695 64.091-64.091s-28.695-64.091-64.091-64.091h-160.228v128.182z" />
<glyph unicode="&#xe903;" glyph-name="facebook" d="M269.882 414.618h112.246v-462.102c0-9.124 7.392-16.516 16.516-16.516h190.318c9.124 0 16.516 7.392 16.516 16.516v459.924h129.038c8.39 0 15.45 6.296 16.408 14.63l19.598 170.122c0.538 4.68-0.944 9.368-4.076 12.88-3.134 3.514-7.62 5.526-12.328 5.526h-148.632v106.642c0 32.146 17.308 48.448 51.452 48.448 4.866 0 97.18 0 97.18 0 9.124 0 16.516 7.396 16.516 16.516v156.158c0 9.124-7.392 16.516-16.516 16.516h-133.93c-0.944 0.046-3.042 0.122-6.134 0.122-23.238 0-104.012-4.562-167.818-63.26-70.696-65.048-60.868-142.93-58.52-156.434v-124.704h-117.836c-9.124 0-16.516-7.392-16.516-16.516v-167.95c0.002-9.122 7.394-16.518 16.518-16.518z" />
<glyph unicode="&#xe904;" glyph-name="instagram" d="M704 960h-384c-176.704 0-320-143.296-320-320v-384c0-176.704 143.296-320 320-320h384c176.704 0 320 143.296 320 320v384c0 176.704-143.296 320-320 320zM928 256c0-123.52-100.48-224-224-224h-384c-123.52 0-224 100.48-224 224v384c0 123.52 100.48 224 224 224h384c123.52 0 224-100.48 224-224v-384zM512 704c-141.376 0-256-114.624-256-256s114.624-256 256-256 256 114.624 256 256-114.624 256-256 256zM512 288c-88.192 0-160 71.808-160 160 0 88.256 71.808 160 160 160s160-71.744 160-160c0-88.192-71.808-160-160-160zM821.312 723.2c0-18.84-15.272-34.112-34.112-34.112s-34.112 15.272-34.112 34.112c0 18.84 15.272 34.112 34.112 34.112s34.112-15.272 34.112-34.112z" />
<glyph unicode="&#xe905;" glyph-name="key" d="M669.948 960c-190.838 0-346.098-155.26-346.098-346.098 0-42.426 7.538-83.654 22.422-122.806l-330.928-330.952c-4.73-4.732-7.388-11.146-7.388-17.834v-181.088c0-13.93 11.292-25.222 25.222-25.222h149.232c6.682 0 13.090 2.65 17.82 7.372l50.29 50.214c4.74 4.732 7.402 11.154 7.402 17.85v61.752h61.674c13.93 0 25.222 11.292 25.222 25.222v24.72h24.722c13.928 0 25.222 11.292 25.222 25.222v54.272h54.272c6.688 0 13.102 2.658 17.834 7.388l80.242 80.242c39.158-14.898 80.392-22.446 122.834-22.446 190.838 0 346.098 155.26 346.098 346.098 0.002 190.834-155.256 346.094-346.094 346.094zM669.948 318.252c-41.284 0-81.212 8.338-118.678 24.786-9.688 4.252-20.598 1.912-27.742-5.050-0.078-0.074-0.154-0.134-0.23-0.212l-84.708-84.708h-69.046c-13.93 0-25.222-11.292-25.222-25.222v-54.272h-24.722c-13.928 0-25.222-11.292-25.222-25.222v-24.72h-61.676c-13.928 0-25.222-11.292-25.222-25.222v-76.514l-35.506-35.45h-113.57v35.642l308.282 308.28c8.866 8.866 8.866 23.238 0 32.102s-23.234 8.868-32.106 0l-276.176-276.178v45.568l335.392 335.416c0.076 0.076 0.134 0.146 0.204 0.22 6.964 7.138 9.312 18.048 5.060 27.744-16.432 37.464-24.76 77.39-24.76 118.66 0 163.024 132.63 295.654 295.654 295.654s295.65-132.628 295.65-295.654c-0.004-163.020-132.636-295.648-295.656-295.648zM775.276 813.712c-52.094 0-94.474-42.38-94.474-94.474s42.38-94.474 94.474-94.474 94.474 42.38 94.474 94.474-42.378 94.474-94.474 94.474zM775.276 675.208c-24.278 0-44.030 19.752-44.030 44.030s19.752 44.030 44.030 44.030 44.030-19.752 44.030-44.030-19.752-44.030-44.030-44.030z" />
<glyph unicode="&#xe906;" glyph-name="money" d="M860 386.334v72.922c47.914 31.492 60 64.992 60 90.744v120c0 23.934-10.884 58.18-60 90.606v29.394c0 36.164-23.81 87.608-137.246 127.31-78.654 27.53-182.624 42.69-292.754 42.69s-214.1-15.16-292.754-42.69c-113.436-39.702-137.246-91.146-137.246-127.31v-120c0-17.49 5.57-38.552 24.152-60.132-19.344-22.598-24.152-44.114-24.152-59.868v-360c0-36.164 23.81-87.608 137.246-127.31 78.654-27.53 182.624-42.69 292.754-42.69 60.796 0 121.136 4.768 175.882 13.82 41.666-59.12 110.454-97.82 188.118-97.82 126.822 0 230 103.178 230 230 0 103.89-69.244 191.898-164 220.334zM860 670v-120c0-16.932-25.422-45.604-97.068-70.68-72.446-25.356-169.376-39.32-272.932-39.32s-200.486 13.964-272.932 39.32c-70.362 24.626-96.124 52.712-97.026 69.75 5.496-2.156 11.218-4.286 17.204-6.38 78.654-27.53 182.624-42.69 292.754-42.69s214.1 15.16 292.754 42.69c113.436 39.702 137.246 91.146 137.246 127.31zM157.068 860.68c72.446 25.356 169.376 39.32 272.932 39.32s200.486-13.964 272.932-39.32c71.646-25.076 97.068-53.748 97.068-70.68s-25.422-45.604-97.068-70.68c-72.446-25.356-169.376-39.32-272.932-39.32s-200.486 13.964-272.932 39.32c-71.646 25.076-97.068 53.748-97.068 70.68s25.422 45.604 97.068 70.68zM60 699.256c19.372-12.732 44.588-25.136 77.246-36.566 78.654-27.53 182.624-42.69 292.754-42.69s214.1 15.16 292.754 42.69c32.658 11.43 57.876 23.834 77.246 36.566v-29.256c0-16.932-25.422-45.604-97.068-70.68-72.446-25.356-169.376-39.32-272.932-39.32s-200.486 13.964-272.932 39.32c-71.646 25.076-97.068 53.748-97.068 70.68v29.256zM430 80c-103.556 0-200.486 13.964-272.932 39.32-71.646 25.076-97.068 53.748-97.068 70.68v29.256c19.372-12.732 44.588-25.136 77.246-36.566 78.654-27.53 182.624-42.69 292.754-42.69 46.388 0 91.528 2.698 134.706 7.95 1.57-20.128 5.754-39.532 12.192-57.884-46.322-6.604-96.378-10.066-146.898-10.066zM568.016 208.83c-43.922-5.85-90.232-8.83-138.016-8.83-103.556 0-200.486 13.964-272.932 39.32-71.646 25.076-97.068 53.748-97.068 70.68v29.256c19.372-12.732 44.588-25.136 77.246-36.566 78.654-27.53 182.624-42.69 292.754-42.69 55.402 0 109.362 3.856 159.538 11.258-10.014-19.376-17.346-40.35-21.522-62.428zM430 320c-103.556 0-200.486 13.964-272.932 39.32-71.646 25.076-97.068 53.748-97.068 70.68v120c0-36.164 23.81-87.608 137.246-127.31 78.654-27.53 182.624-42.69 292.754-42.69s214.1 15.16 292.754 42.69c5.982 2.094 11.7 4.222 17.192 6.376-0.5-10.214-9.202-22.042-24.818-33.844-48.158-3.93-92.168-22.75-127.396-51.85-64.148-15.286-139.232-23.372-217.732-23.372zM794-4c-93.738 0-170 76.262-170 170s76.262 170 170 170c93.738 0 170-76.262 170-170s-76.262-170-170-170zM876.788 255.714l-115.788-115.788-49.788 49.788-42.424-42.428 92.212-92.212 158.212 158.212z" />
<glyph unicode="&#xe907;" glyph-name="play-arrow" d="M109.714 960v-1024l804.571 512z" />
<glyph unicode="&#xe908;" glyph-name="right-arrow" d="M743.156 728.843l-45.612-45.614 202.973-202.975h-900.517v-64.509h900.517l-202.973-202.973 45.612-45.614 280.844 280.844z" />
<glyph unicode="&#xe909;" glyph-name="steam" d="M842.206 750.668c-100.262 0-181.827-81.532-181.827-181.794 0-16.765 3.012-32.711 7.302-48.134l-72.855-114.964c-9.659 2.227-19.614 3.7-29.895 3.7-32.187 0-61.362-12.017-84.316-31.238l-217.223 95.317c0.164 2.587 0.753 4.977 0.753 7.564 0 72.822-59.299 132.056-132.089 132.056s-132.056-59.201-132.056-132.056c0-72.855 59.266-132.089 132.056-132.089 27.112 0 52.325 8.186 73.281 22.299l228.094-100.131c3.34-69.908 60.74-125.933 131.5-125.933 72.822 0 132.056 59.266 132.056 132.089 0 5.468-0.917 10.707-1.637 16.012l122.331 96.136c8.055-1.146 16.11-2.489 24.492-2.489 100.262 0 181.827 81.565 181.827 181.827 0 100.327-81.565 181.827-181.794 181.827zM70.137 481.12c0 34.119 27.8 61.919 61.919 61.919 34.152 0 61.951-27.767 61.951-61.919s-27.8-61.919-61.951-61.919c-34.119 0-61.919 27.767-61.919 61.919zM564.931 213.341c-35.363 0-64.113 28.716-64.113 64.080 0 35.331 28.749 64.145 64.113 64.145 35.331 0 64.080-28.782 64.080-64.145s-28.749-64.080-64.080-64.080zM842.206 465.010c-57.302 0-103.864 46.595-103.864 103.864s46.562 103.864 103.864 103.864 103.864-46.595 103.864-103.864-46.562-103.864-103.864-103.864z" />
<glyph unicode="&#xe90a;" glyph-name="twitter" d="M1024 765.477c-37.689-16.7-78.129-28.026-120.618-33.083 43.384 25.98 76.594 67.187 92.334 116.139-40.696-24.059-85.616-41.529-133.48-50.999-38.328 40.888-92.846 66.356-153.316 66.356-116.010 0-210.072-94.062-210.072-210.009 0-16.444 1.856-32.505 5.44-47.864-174.559 8.768-329.345 92.399-432.941 219.481-18.109-30.971-28.411-67.059-28.411-105.581 0-72.883 37.113-137.191 93.423-174.815-34.426 1.151-66.804 10.621-95.15 26.363v-2.624c0-101.741 72.435-186.652 168.48-205.978-17.597-4.735-36.153-7.359-55.35-7.359-13.565 0-26.683 1.344-39.544 3.904 26.746-83.505 104.301-144.228 196.188-145.893-71.859-56.31-162.466-89.776-260.879-89.776-16.956 0-33.658 1.024-50.102 2.88 92.975-59.702 203.354-94.511 321.988-94.511 386.423 0 597.648 320.069 597.648 597.648l-0.704 27.195c41.271 29.437 76.976 66.421 105.067 108.526z" />
<glyph unicode="&#xe90b;" glyph-name="vk" d="M881.298 369.278c33.968-33.164 69.818-64.364 100.284-100.872 13.458-16.224 26.198-32.964 35.946-51.792 13.812-26.764 1.302-56.216-22.696-57.814l-149.18 0.068c-38.476-3.192-69.17 12.296-94.978 38.604-20.654 21.038-39.782 43.428-59.642 65.176-8.142 8.888-16.664 17.252-26.844 23.864-20.364 13.218-38.042 9.172-49.68-12.068-11.852-21.604-14.542-45.524-15.706-69.6-1.598-35.128-12.216-44.364-47.502-45.972-75.41-3.556-146.978 7.852-213.464 45.894-58.616 33.536-104.068 80.882-143.632 134.48-77.026 104.366-136.016 219.050-189.032 336.946-11.934 26.562-3.206 40.82 26.102 41.326 48.666 0.946 97.326 0.878 146.050 0.068 19.78-0.29 32.874-11.634 40.512-30.32 26.33-64.742 58.548-126.338 98.988-183.432 10.77-15.2 21.752-30.402 37.388-41.1 17.3-11.846 30.472-7.92 38.61 11.352 5.164 12.22 7.426 25.382 8.59 38.468 3.856 45.026 4.364 89.976-2.398 134.844-4.152 28.002-19.924 46.13-47.866 51.428-14.258 2.702-12.136 8.008-5.232 16.146 11.99 14.036 23.268 22.774 45.75 22.774h168.596c26.542-5.238 32.436-17.162 36.070-43.868l0.144-187.274c-0.29-10.338 5.164-41.020 23.786-47.862 14.904-4.872 24.728 7.052 33.672 16.502 40.366 42.842 69.176 93.474 94.914 145.902 11.422 23.054 21.244 46.994 30.762 70.916 7.052 17.75 18.118 26.484 38.112 26.098l162.264-0.144c4.812 0 9.68-0.070 14.34-0.868 27.342-4.66 34.836-16.422 26.39-43.122-13.306-41.89-39.196-76.8-64.51-111.87-27.060-37.442-56.002-73.604-82.836-111.268-24.656-34.4-22.698-51.736 7.928-81.61v0z" />
<glyph unicode="&#xe90c;" glyph-name="youtube-logo" d="M807.128 210.978h-56.195l0.262 32.643c0 14.507 11.913 26.374 26.465 26.374h3.584c14.586 0 26.533-11.867 26.533-26.374l-0.649-32.643zM596.343 280.929c-14.256 0-25.919-9.58-25.919-21.311v-158.754c0-11.708 11.662-21.265 25.919-21.265 14.313 0 25.987 9.557 25.987 21.265v158.754c0 11.742-11.674 21.311-25.987 21.311zM938.667 369.732v-302.012c0-72.442-62.817-131.721-139.605-131.721h-574.111c-76.811 0-139.617 59.278-139.617 131.721v302.012c0 72.442 62.805 131.732 139.617 131.732h574.111c76.789 0 139.605-59.29 139.605-131.732zM263.248 34.93l-0.046 318.134 71.168-0.023v47.138l-189.713 0.284v-46.342l59.221-0.171v-319.022h59.369zM476.581 305.675h-59.335v-169.882c0-24.576 1.49-36.864-0.091-41.199-4.824-13.175-26.51-27.17-34.964-1.422-1.434 4.506-0.171 18.102-0.193 41.449l-0.239 171.054h-59.005l0.182-168.368c0.046-25.805-0.58-45.045 0.205-53.806 1.445-15.44 0.933-33.439 15.258-43.725 26.692-19.228 77.858 2.867 90.658 30.356l-0.114-35.078 47.65-0.057-0.011 270.677zM666.396 111.138l-0.125 141.392c-0.046 53.885-40.357 86.153-95.073 42.553l0.239 105.119-59.267-0.091-0.284-362.837 48.742 0.705 4.437 22.596c62.271-57.128 101.422-17.977 101.33 50.563zM852.093 129.877l-44.487-0.239c-0.023-1.764-0.091-3.8-0.114-6.019v-24.826c0-13.289-10.98-24.11-24.314-24.11h-8.715c-13.358 0-24.337 10.82-24.337 24.11v65.297h101.877v38.343c0 28.023-0.717 56.036-3.038 72.055-7.293 50.677-78.427 58.721-114.358 32.779-11.275-8.101-19.888-18.944-24.895-33.508-5.052-14.575-7.566-34.486-7.566-59.779v-84.309c0.023-140.151 170.257-120.343 149.948 0.205zM623.878 587.583c3.061-7.441 7.817-13.471 14.268-18.022 6.372-4.483 14.518-6.736 24.28-6.736 8.556 0 16.134 2.31 22.733 7.077 6.576 4.745 12.117 11.833 16.646 21.288l-1.126-23.279h66.139v281.27h-52.065v-218.908c0-11.856-9.762-21.561-21.697-21.561-11.867 0-21.663 9.705-21.663 21.561v218.908h-54.34v-189.713c0-24.166 0.444-40.277 1.161-48.447 0.74-8.112 2.606-15.895 5.666-23.438zM423.447 746.439c0 26.999 2.253 48.082 6.724 63.283 4.506 15.144 12.595 27.318 24.314 36.5 11.685 9.227 26.647 13.847 44.84 13.847 15.303 0 28.41-3.004 39.356-8.886 11.002-5.916 19.49-13.596 25.372-23.074 5.996-9.512 10.069-19.285 12.242-29.286 2.219-10.138 3.311-25.429 3.311-46.057v-71.134c0-26.089-1.047-45.284-3.083-57.469-2.014-12.22-6.337-23.552-13.039-34.179-6.599-10.513-15.121-18.375-25.452-23.393-10.445-5.063-22.391-7.543-35.886-7.543-15.076 0-27.773 2.082-38.241 6.428-10.502 4.324-18.614 10.843-24.394 19.502-5.837 8.67-9.944 19.228-12.425 31.539-2.492 12.299-3.675 30.8-3.675 55.455l0.034 74.468zM475.25 634.709c0-15.929 11.856-28.934 26.294-28.934 14.45 0 26.26 13.005 26.26 28.934v149.732c0 15.906-11.81 28.911-26.26 28.911-14.438 0-26.294-13.005-26.294-28.911v-149.732zM292.204 559.104h62.396l0.068 215.723 73.728 184.798h-68.244l-39.196-137.262-39.754 137.637h-67.538l78.438-185.276 0.102-215.62z" />
</font></defs></svg>